{   "deviceID" : 12,
	"verID" : 0.1,
	"deviceName" : "Multimeter Siemens C234",
		"uniqueProbes" : [
		{
			"probeID" : 10,
			"probeName" : "ADC2131",
			"probeSpec" : {
				"probeOut" : {
					"probeType" : "A",
					"dataType" : "d1",
					"dataUnit" : "mA",
					"defaultDisplayType" : "label"},
				"probeIn" : {
					"sampleFreq" : 10,
					"autoTriggerRetry" : true,
					"numberOfSamples" : 100},
				"probeActions" : [
				{
					"actionName" : "Turn On After",
					"actionParameter" : "d1",
					"actionDesc" : "Time when the light should go on"
				}]
			}
		},
		{
			"probeID" : 14,
			"probeName" : "TCDS213",
			"probeSpec" : {
				"probeOut" : {
					"probeType" : "V",
					"dataType" : "d2",
					"dataUnit" : "MV",
					"defaultDisplayType" : "plot"},
				"probeIn" : {
					"sampleFreq" : 1000,
					"autoTriggerRetry" : false,
					"numberOfSamples" : 10},
				"probeActions" : [
				{
					"actionName" : "Set temperature",
					"actionParameter" : "d1",
					"actionDesc" : "Set temprature"
				}]
			}
		}]
}
